DCS-Connection/Lab1/comb_dcs076.vcd
$date
	Thu Feb 05 02:06:58 2026
$end
$version
	Icarus Verilog
$end
$timescale
	1s
$end
$scope module PATTERN $end
$var wire 8 ! out_num1 [7:0] $end
$var wire 8 " out_num0 [7:0] $end
$var reg 7 # A [6:0] $end
$var reg 7 $ B [6:0] $end
$var reg 7 % C [6:0] $end
$var reg 7 & D [6:0] $end
$var reg 1 ' clk $end
$var reg 7 ( in_num0 [6:0] $end
$var reg 7 ) in_num1 [6:0] $end
$var reg 7 * in_num2 [6:0] $end
$var reg 7 + in_num3 [6:0] $end
$var reg 7 , large1 [6:0] $end
$var reg 7 - large2 [6:0] $end
$var reg 8 . large_add [7:0] $end
$var reg 7 / small1 [6:0] $end
$var reg 7 0 small2 [6:0] $end
$var reg 8 1 small_add [7:0] $end
$var reg 8 2 small_gray [7:0] $end
$var real 1 3 CYCLE $end
$var integer 32 4 PATNUM [31:0] $end
$var integer 32 5 patcount [31:0] $end
$var integer 32 6 seed [31:0] $end
$scope module inst_comb $end
$var wire 7 7 in_num0 [6:0] $end
$var wire 7 8 in_num1 [6:0] $end
$var wire 7 9 in_num2 [6:0] $end
$var wire 7 : in_num3 [6:0] $end
$var reg 8 ; adder_result [7:0] $end
$var reg 7 < and_result [6:0] $end
$var reg 7 = large_1_num [6:0] $end
$var reg 7 > large_2_num [6:0] $end
$var reg 7 ? or_result [6:0] $end
$var reg 8 @ out_num0 [7:0] $end
$var reg 8 A out_num1 [7:0] $end
$var reg 7 B small_1_num [6:0] $end
$var reg 7 C small_2_num [6:0] $end
$var reg 7 D xnor_result [6:0] $end
$var reg 7 E xor_result [6:0] $end
$upscope $end
$scope task YOU_PASS_task $end
$upscope $end
$scope task check_ans $end
$upscope $end
$scope task fail $end
$upscope $end
$scope task gen_ans $end
$upscope $end
$scope task input_task $end
$upscope $end
$upscope $end
$enddefinitions $end
$comment Show the parameter values. $end
$dumpall
$end
#0
$dumpvars
b11010 E
b10110 D
b0 C
b10110 B
b11101 A
b1010010 @
b111000 ?
b11010 >
b111000 =
b0 <
b10110 ;
b11000 :
b10 9
b100000 8
b1001001 7
b10010 6
b0 5
b10010110 4
r10 3
b11101 2
b10110 1
b0 0
b10110 /
b1010010 .
b11010 -
b111000 ,
b11000 +
b10 *
b100000 )
b1001001 (
0'
b11010 &
b0 %
b111000 $
b10110 #
b1010010 "
b11101 !
$end
#5
1'
#10
b1010000 !
b1010000 A
b1100000 ;
b10000100 "
b10000100 @
b1 C
b11101 >
b1011111 B
b1100111 =
b11101 E
b1 <
b1100111 ?
b1011111 D
b1010000 2
b1100000 1
b10000100 .
b1 0
b11101 -
b1011111 /
b1100111 ,
b11101 &
b1 %
b1100111 $
b1011111 #
b100 +
b100 :
b11001 *
b11001 9
b1100011 )
b1100011 8
b1000011 (
b1000011 7
b1 5
0'
#15
1'
#20
b1010001 !
b1010001 A
b1100001 ;
b10111100 "
b10111100 @
b10010 C
b1000000 >
b1001111 B
b1111100 =
b10010 E
b1000000 <
b1001111 ?
b1111100 D
b1010001 2
b1100001 1
b10111100 .
b10010 0
b1000000 -
b1001111 /
b1111100 ,
b10010 &
b1000000 %
b1001111 $
b1111100 #
b1001111 +
b1001111 :
b1011101 *
b1011101 9
b1000011 )
b1000011 8
b1000000 (
b1000000 7
b10 5
0'
#25
1'
#30
b11101101 !
b11101101 A
b10110110 ;
b11101101 "
b11101101 @
b1001111 C
b1111010 >
b1100111 B
b1110011 =
b1001111 E
b1111010 <
b1110011 ?
b1100111 D
b11101101 2
b10110110 1
b11101101 .
b1001111 0
b1111010 -
b1100111 /
b1110011 ,
b1001111 &
b1111010 %
b1110011 $
b1100111 #
b110001 +
b110001 :
b1111110 *
b1111110 9
b1100011 )
b1100011 8
b1111011 (
b1111011 7
b11 5
0'
#35
1'
#40
b1001000 !
b1001000 A
b1110000 ;
b11001000 "
b11001000 @
b110001 C
b1100100 >
b111111 B
b1100100 =
b1100100 E
b110001 <
b111111 ?
b1100100 D
b1001000 2
b1110000 1
b11001000 .
b110001 0
b1100100 -
b111111 /
b1100100 ,
b1100100 &
b110001 %
b111111 $
b1100100 #
b11101 +
b11101 :
b1111001 *
b1111001 9
b101010 )
b101010 8
b110001 (
b110001 7
b100 5
0'
#45
1'
#50
b10010 !
b10010 A
b11100 ;
b11000010 "
b11000010 @
b100 C
b1001111 >
b11000 B
b1110011 =
b1001111 E
b100 <
b1110011 ?
b11000 D
b10010 2
b11100 1
b11000010 .
b100 0
b1001111 -
b11000 /
b1110011 ,
b1001111 &
b100 %
b1110011 $
b11000 #
b110011 +
b110011 :
b1111100 *
b1111100 9
b1100011 )
b1100011 8
b100 (
b100 7
b101 5
0'
#55
1'
#60
b1111001 !
b1111001 A
b1010001 ;
b11101100 "
b11101100 @
b10010 C
b1111000 >
b111111 B
b1110100 =
b1111000 E
b10010 <
b111111 ?
b1110100 D
b1111001 2
b1010001 1
b11101100 .
b10010 0
b1111000 -
b111111 /
b1110100 ,
b1111000 &
b10010 %
b111111 $
b1110100 #
b101111 +
b101111 :
b1010111 *
b1010111 9
b110001 )
b110001 8
b111010 (
b111010 7
b110 5
0'
#65
1'
#70
b1010010 !
b1010010 A
b1100011 ;
b11000111 "
b11000111 @
b1000 C
b1011010 >
b1011011 B
b1101101 =
b1011010 E
b1000 <
b1011011 ?
b1101101 D
b1010010 2
b1100011 1
b11000111 .
b1000 0
b1011010 -
b1011011 /
b1101101 ,
b1011010 &
b1000 %
b1011011 $
b1101101 #
b1000010 +
b1000010 :
b11000 *
b11000 9
b11001 )
b11001 8
b1011 (
b1011 7
b111 5
0'
#75
1'
#80
b101100 !
b101100 A
b110111 ;
b10111100 "
b10111100 @
b100000 C
b1001101 >
b10111 B
b1101111 =
b1001101 E
b100000 <
b1101111 ?
b10111 D
b101100 2
b110111 1
b10111100 .
b100000 0
b1001101 -
b10111 /
b1101111 ,
b1001101 &
b100000 %
b1101111 $
b10111 #
b100111 +
b100111 :
b1101010 *
b1101010 9
b1001000 )
b1001000 8
b100000 (
b100000 7
b1000 5
0'
#85
1'
#90
b11111 !
b11111 A
b10101 ;
b1110101 "
b1110101 @
b1 C
b10111 >
b10100 B
b1011110 =
b10111 E
b1 <
b10100 ?
b1011110 D
b11111 2
b10101 1
b1110101 .
b1 0
b10111 -
b10100 /
b1011110 ,
b10111 &
b1 %
b10100 $
b1011110 #
b10100 +
b10100 :
b11 *
b11 9
b100 )
b100 8
b100101 (
b100101 7
b1001 5
0'
#95
1'
#100
b11000 !
b11000 A
b10000 ;
b1101010 "
b1101010 @
b0 C
b101011 >
b10000 B
b111111 =
b101011 E
b0 <
b111111 ?
b10000 D
b11000 2
b10000 1
b1101010 .
b0 0
b101011 -
b10000 /
b111111 ,
b101011 &
b0 %
b111111 $
b10000 #
b101011 +
b101011 :
b0 *
b0 9
b110101 )
b110101 8
b1011010 (
b1011010 7
b1010 5
0'
#105
1'
#110
b11111 !
b11111 A
b10101 ;
b10110011 "
b10110011 @
b1010 C
b1000000 >
b1011 B
b1110011 =
b1010 E
b1000000 <
b1110011 ?
b1011 D
b11111 2
b10101 1
b10110011 .
b1010 0
b1000000 -
b1011 /
b1110011 ,
b1010 &
b1000000 %
b1110011 $
b1011 #
b1000010 +
b1000010 :
b1001000 *
b1001000 9
b110011 )
b110011 8
b1000111 (
b1000111 7
b1011 5
0'
#115
1'
#120
b1010000 !
b1010000 A
b1100000 ;
b10011111 "
b10011111 @
b11110 C
b110000 >
b1000010 B
b1101111 =
b11110 E
b110000 <
b1101111 ?
b1000010 D
b1010000 2
b1100000 1
b10011111 .
b11110 0
b110000 -
b1000010 /
b1101111 ,
b11110 &
b110000 %
b1101111 $
b1000010 #
b1100010 +
b1100010 :
b1111100 *
b1111100 9
b1111 )
b1111 8
b110010 (
b110010 7
b1100 5
0'
#125
1'
#130
b1011101 !
b1011101 A
b1101001 ;
b10110010 "
b10110010 @
b1010000 C
b1111100 >
b11001 B
b110110 =
b1111100 E
b1010000 <
b110110 ?
b11001 D
b1011101 2
b1101001 1
b10110010 .
b1010000 0
b1111100 -
b11001 /
b110110 ,
b1111100 &
b1010000 %
b110110 $
b11001 #
b100010 +
b100010 :
b1011110 *
b1011110 9
b110110 )
b110110 8
b1010000 (
b1010000 7
b1101 5
0'
#135
1'
#140
b11000011 !
b11000011 A
b10000010 ;
b11011111 "
b11011111 @
b11010 C
b1110000 >
b1101000 B
b1101111 =
b11010 E
b1110000 <
b1101111 ?
b1101000 D
b11000011 2
b10000010 1
b11011111 .
b11010 0
b1110000 -
b1101000 /
b1101111 ,
b11010 &
b1110000 %
b1101111 $
b1101000 #
b1101011 +
b1101011 :
b1110001 *
b1110001 9
b1101101 )
b1101101 8
b1111010 (
b1111010 7
b1110 5
0'
#145
1'
#150
b10010 !
b10010 A
b11100 ;
b1111100 "
b1111100 @
b10 C
b11110 >
b11010 B
b1011110 =
b11110 E
b10 <
b1011110 ?
b11010 D
b10010 2
b11100 1
b1111100 .
b10 0
b11110 -
b11010 /
b1011110 ,
b11110 &
b10 %
b1011110 $
b11010 #
b11100 +
b11100 :
b10 *
b10 9
b1001010 )
b1001010 8
b101111 (
b101111 7
b1111 5
0'
#155
1'
#160
b1101011 !
b1101011 A
b1001101 ;
b10011111 "
b10011111 @
b0 C
b1000000 >
b1001101 B
b1011111 =
b1000000 E
b0 <
b1011111 ?
b1001101 D
b1101011 2
b1001101 1
b10011111 .
b0 0
b1000000 -
b1001101 /
b1011111 ,
b1000000 &
b0 %
b1011111 $
b1001101 #
b1001110 +
b1001110 :
b1110 *
b1110 9
b1010011 )
b1010011 8
b1100001 (
b1100001 7
b10000 5
0'
#165
1'
#170
b111000 !
b111000 A
b101111 ;
b10010011 "
b10010011 @
b1010 C
b11100 >
b100101 B
b1110111 =
b1010 E
b11100 <
b1110111 ?
b100101 D
b111000 2
b101111 1
b10010011 .
b1010 0
b11100 -
b100101 /
b1110111 ,
b1010 &
b11100 %
b1110111 $
b100101 #
b1110110 +
b1110110 :
b1111100 *
b1111100 9
b1000101 )
b1000101 8
b11111 (
b11111 7
b10001 5
0'
#175
1'
#180
b1001100 !
b1001100 A
b1110111 ;
b10110100 "
b10110100 @
b100 C
b1000000 >
b1110011 B
b1110100 =
b100 E
b1000000 <
b1110011 ?
b1110100 D
b1001100 2
b1110111 1
b10110100 .
b100 0
b1000000 -
b1110011 /
b1110100 ,
b100 &
b1000000 %
b1110011 $
b1110100 #
b1100011 +
b1100011 :
b1100111 *
b1100111 9
b1010011 )
b1010011 8
b1011000 (
b1011000 7
b10010 5
0'
#185
1'
#190
b1111011 !
b1111011 A
b1010010 ;
b1101111 "
b1101111 @
b100110 C
b110000 >
b101100 B
b111111 =
b110000 E
b100110 <
b111111 ?
b101100 D
b1111011 2
b1010010 1
b1101111 .
b100110 0
b110000 -
b101100 /
b111111 ,
b110000 &
b100110 %
b111111 $
b101100 #
b10111 +
b10111 :
b100111 *
b100111 9
b101101 )
b101101 8
b1111110 (
b1111110 7
b10011 5
0'
#195
1'
#200
b10011 !
b10011 A
b11101 ;
b10011100 "
b10011100 @
b10010 C
b100110 >
b1011 B
b1110110 =
b100110 E
b10010 <
b1110110 ?
b1011 D
b10011 2
b11101 1
b10011100 .
b10010 0
b100110 -
b1011 /
b1110110 ,
b100110 &
b10010 %
b1110110 $
b1011 #
b110100 +
b110100 :
b10010 *
b10010 9
b1100010 )
b1100010 8
b10110 (
b10110 7
b10100 5
0'
#205
1'
#210
b1000010 !
b1000010 A
b1111100 ;
b10000100 "
b10000100 @
b100101 C
b1010111 B
b1011110 =
b100101 <
b1010111 ?
b1011110 D
b1000010 2
b1111100 1
b10000100 .
b100101 0
b1010111 /
b1011110 ,
b100101 %
b1010111 $
b1011110 #
b1000011 +
b1000011 :
b1100101 *
b1100101 9
b10100 )
b10100 8
b110101 (
b110101 7
b10101 5
0'
#215
1'
#220
b1101011 !
b1101011 A
b1001101 ;
b11010001 "
b11010001 @
b10000 C
b1010010 >
b111101 B
b1111111 =
b1010010 E
b10000 <
b1111111 ?
b111101 D
b1101011 2
b1001101 1
b11010001 .
b10000 0
b1010010 -
b111101 /
b1111111 ,
b1010010 &
b10000 %
b1111111 $
b111101 #
b1001111 +
b1001111 :
b11101 *
b11101 9
b1110010 )
b1110010 8
b110000 (
b110000 7
b10110 5
0'
#225
1'
#230
b100101 !
b100101 A
b111001 ;
b10011111 "
b10011111 @
b10101 C
b1000000 >
b100100 B
b1011111 =
b10101 E
b1000000 <
b1011111 ?
b100100 D
b100101 2
b111001 1
b10011111 .
b10101 0
b1000000 -
b100100 /
b1011111 ,
b10101 &
b1000000 %
b1011111 $
b100100 #
b1001110 +
b1001110 :
b1011011 *
b1011011 9
b11111 )
b11111 8
b1000100 (
b1000100 7
b10111 5
0'
#235
1'
#240
b1101011 !
b1101011 A
b1001101 ;
b10111101 "
b10111101 @
b1000001 C
b1111111 >
b1100 B
b111110 =
b1111111 E
b1000001 <
b111110 ?
b1100 D
b1101011 2
b1001101 1
b10111101 .
b1000001 0
b1111111 -
b1100 /
b111110 ,
b1111111 &
b1000001 %
b111110 $
b1100 #
b11110 +
b11110 :
b1100001 *
b1100001 9
b110100 )
b110100 8
b1000111 (
b1000111 7
b11000 5
0'
#245
1'
#250
b1010000 !
b1010000 A
b1100000 ;
b11000000 "
b11000000 @
b110 C
b1000101 >
b1011010 B
b1111011 =
b1000101 E
b110 <
b1011010 ?
b1111011 D
b1010000 2
b1100000 1
b11000000 .
b110 0
b1000101 -
b1011010 /
b1111011 ,
b1000101 &
b110 %
b1011010 $
b1111011 #
b1001010 +
b1001010 :
b1111 *
b1111 9
b1010010 )
b1010010 8
b1010110 (
b1010110 7
b11001 5
0'
#255
1'
#260
b1111 !
b1111 A
b1010 ;
b101011 "
b101011 @
b10 C
b100 >
b1000 B
b100111 =
b100 E
b10 <
b100111 ?
b1000 D
b1111 2
b1010 1
b101011 .
b10 0
b100 -
b1000 /
b100111 ,
b100 &
b10 %
b100111 $
b1000 #
b100111 +
b100111 :
b100011 *
b100011 9
b100001 )
b100001 8
b11010 5
0'
#265
1'
#270
b1010110 !
b1010110 A
b1100100 ;
b10011101 "
b10011101 @
b1011100 C
b1110100 >
b101001 =
b1110100 E
b1011100 <
b101001 ?
b1010110 2
b1100100 1
b10011101 .
b1011100 0
b1110100 -
b101001 ,
b1110100 &
b1011100 %
b101001 $
b101000 +
b101000 :
b1011100 *
b1011100 9
b1001 )
b1001 8
b1111110 (
b1111110 7
b11011 5
0'
#275
1'
#280
b1110110 !
b1110110 A
b1011011 ;
b11000011 "
b11000011 @
b11 C
b1000110 >
b1011000 B
b1111101 =
b1000110 E
b11 <
b1111101 ?
b1011000 D
b1110110 2
b1011011 1
b11000011 .
b11 0
b1000110 -
b1011000 /
b1111101 ,
b1000110 &
b11 %
b1111101 $
b1011000 #
b1010001 +
b1010001 :
b10111 *
b10111 9
b101100 )
b101100 8
b1011 (
b1011 7
b11100 5
0'
#285
1'
#290
b1011101 !
b1011101 A
b1101001 ;
b11100101 "
b11100101 @
b111001 C
b1101111 >
b110000 B
b1110110 =
b1101111 E
b111001 <
b1110110 ?
b110000 D
b1011101 2
b1101001 1
b11100101 .
b111001 0
b1101111 -
b110000 /
b1110110 ,
b1101111 &
b111001 %
b1110110 $
b110000 #
b1010110 +
b1010110 :
b111001 *
b111001 9
b110010 )
b110010 8
b1111101 (
b1111101 7
b11101 5
0'
#295
1'
#300
b11000 !
b11000 A
b10000 ;
b1101010 "
b1101010 @
b10 C
b101111 >
b1110 B
b111011 =
b101111 E
b10 <
b111011 ?
b1110 D
b11000 2
b10000 1
b1101010 .
b10 0
b101111 -
b1110 /
b111011 ,
b101111 &
b10 %
b111011 $
b1110 #
b11001 +
b11001 :
b110110 *
b110110 9
b111011 )
b111011 8
b1001010 (
b1001010 7
b11110 5
0'
#305
1'
#310
b1001001 !
b1001001 A
b1110001 ;
b10000110 "
b10000110 @
b1100 C
b1111 >
b1100101 B
b1110111 =
b1111 E
b1100 <
b1110111 ?
b1100101 D
b1001001 2
b1110001 1
b10000110 .
b1100 0
b1111 -
b1100101 /
b1110111 ,
b1111 &
b1100 %
b1110111 $
b1100101 #
b1010001 +
b1010001 :
b1011110 *
b1011110 9
b110111 )
b110111 8
b101101 (
b101101 7
b11111 5
0'
#315
1'
#320
b110001 !
b110001 A
b100001 ;
b1110100 "
b1110100 @
b100000 C
b101001 >
b1 B
b1001011 =
b101001 E
b100000 <
b1001011 ?
b1 D
b110001 2
b100001 1
b1110100 .
b100000 0
b101001 -
b1 /
b1001011 ,
b101001 &
b100000 %
b1001011 $
b1 #
b1000011 +
b1000011 :
b1101010 *
b1101010 9
b1001010 )
b1001010 8
b110100 (
b110100 7
b100000 5
0'
#325
1'
#330
b100011 !
b100011 A
b111101 ;
b1101101 "
b1101101 @
b1111 C
b110111 >
b101110 B
b110110 =
b1111 E
b110111 <
b110110 ?
b101110 D
b100011 2
b111101 1
b1101101 .
b1111 0
b110111 -
b101110 /
b110110 ,
b1111 &
b110111 %
b110110 $
b101110 #
b110000 +
b110000 :
b111111 *
b111111 9
b100110 )
b100110 8
b1110111 (
b1110111 7
b100001 5
0'
#335
1'
#340
b1010110 !
b1010110 A
b1100100 ;
b10010100 "
b10010100 @
b10001 C
b11011 >
b1010011 B
b1111001 =
b11011 E
b10001 <
b1010011 ?
b1111001 D
b1010110 2
b1100100 1
b10010100 .
b10001 0
b11011 -
b1010011 /
b1111001 ,
b11011 &
b10001 %
b1010011 $
b1111001 #
b10 +
b10 :
b11001 *
b11001 9
b1010011 )
b1010011 8
b1010101 (
b1010101 7
b100010 5
0'
#345
1'
#350
b1011100 !
b1011100 A
b1101000 ;
b10011110 "
b10011110 @
b1001100 C
b1110000 >
b11100 B
b101110 =
b1110000 E
b1001100 <
b101110 ?
b11100 D
b1011100 2
b1101000 1
b10011110 .
b1001100 0
b1110000 -
b11100 /
b101110 ,
b1110000 &
b1001100 %
b101110 $
b11100 #
b101110 +
b101110 :
b1011110 *
b1011110 9
b1110 )
b1110 8
b1101101 (
b1101101 7
b100011 5
0'
#355
1'
#360
b1001100 !
b1001100 A
b1110111 ;
b10010101 "
b10010101 @
b1 C
b10111 >
b1110110 B
b1111110 =
b10111 E
b1 <
b1110110 ?
b1111110 D
b1001100 2
b1110111 1
b10010101 .
b1 0
b10111 -
b1110110 /
b1111110 ,
b10111 &
b1 %
b1110110 $
b1111110 #
b10110 +
b10110 :
b1 *
b1 9
b1100100 )
b1100100 8
b1100101 (
b1100101 7
b100100 5
0'
#365
1'
#370
b11000100 !
b11000100 A
b10000111 ;
b10010001 "
b10010001 @
b1101101 C
b1110110 >
b11010 B
b11011 =
b1101101 E
b1110110 <
b11011 ?
b11010 D
b11000100 2
b10000111 1
b10010001 .
b1101101 0
b1110110 -
b11010 /
b11011 ,
b1101101 &
b1110110 %
b11011 $
b11010 #
b11011 +
b11011 :
b1110110 *
b1110110 9
b10011 )
b10011 8
b1110110 (
b1110110 7
b100101 5
0'
#375
1'
#380
b10100 !
b10100 A
b11000 ;
b10000100 "
b10000100 @
b1000 C
b1101 >
b10000 B
b1110111 =
b1000 E
b1101 <
b1110111 ?
b10000 D
b10100 2
b11000 1
b10000100 .
b1000 0
b1101 -
b10000 /
b1110111 ,
b1000 &
b1101 %
b1110111 $
b10000 #
b1100101 +
b1100101 :
b1101101 *
b1101101 9
b1110010 )
b1110010 8
b11101 (
b11101 7
b100110 5
0'
#385
1'
#390
b1100000 !
b1100000 A
b1000000 ;
b10000010 "
b10000010 @
b10001 C
b100111 >
b101111 B
b1011011 =
b100111 E
b10001 <
b1011011 ?
b101111 D
b1100000 2
b1000000 1
b10000010 .
b10001 0
b100111 -
b101111 /
b1011011 ,
b100111 &
b10001 %
b1011011 $
b101111 #
b1011010 +
b1011010 :
b1111101 *
b1111101 9
b1000001 )
b1000001 8
b10001 (
b10001 7
b100111 5
0'
#395
1'
#400
b100100 !
b100100 A
b111000 ;
b10101100 "
b10101100 @
b1000 C
b1000001 >
b110000 B
b1101011 =
b1000001 E
b1000 <
b1101011 ?
b110000 D
b100100 2
b111000 1
b10101100 .
b1000 0
b1000001 -
b110000 /
b1101011 ,
b1000001 &
b1000 %
b1101011 $
b110000 #
b1011 +
b1011 :
b1001010 *
b1001010 9
b1100010 )
b1100010 8
b101101 (
b101101 7
b101000 5
0'
#405
1'
#410
b1100111 !
b1100111 A
b1000101 ;
b10010100 "
b10010100 @
b0 C
b1000101 >
b1000101 B
b1001111 =
b1000101 E
b0 <
b1001111 ?
b1000101 D
b1100111 2
b1000101 1
b10010100 .
b0 0
b1000101 -
b1000101 /
b1001111 ,
b1000101 &
b0 %
b1001111 $
b1000101 #
b1000111 +
b1000111 :
b10 *
b10 9
b1011 )
b1011 8
b110001 (
b110001 7
b101001 5
0'
#415
1'
#420
b11001 !
b11001 A
b10001 ;
b11010001 "
b11010001 @
b111 C
b1100110 >
b1010 B
b1101011 =
b1100110 E
b111 <
b1101011 ?
b1010 D
b11001 2
b10001 1
b11010001 .
b111 0
b1100110 -
b1010 /
b1101011 ,
b1100110 &
b111 %
b1101011 $
b1010 #
b1100001 +
b1100001 :
b111 *
b111 9
b1001010 )
b1001010 8
b111111 (
b111111 7
b101010 5
0'
#425
1'
#430
b111000 !
b111000 A
b101111 ;
b10001011 "
b10001011 @
b10000 C
b1000101 >
b11111 B
b1000110 =
b1000101 E
b10000 <
b11111 ?
b1000110 D
b111000 2
b101111 1
b10001011 .
b10000 0
b1000101 -
b11111 /
b1000110 ,
b1000101 &
b10000 %
b11111 $
b1000110 #
b11100 +
b11100 :
b1011001 *
b1011001 9
b1111 )
b1111 8
b110110 (
b110110 7
b101011 5
0'
#435
1'
#440
b110001 !
b110001 A
b100001 ;
b10100111 "
b10100111 @
b10100 C
b101001 >
b1101 B
b1111110 =
b101001 E
b10100 <
b1111110 ?
b1101 D
b110001 2
b100001 1
b10100111 .
b10100 0
b101001 -
b1101 /
b1111110 ,
b101001 &
b10100 %
b1111110 $
b1101 #
b1111110 +
b1111110 :
b1010111 *
b1010111 9
b1101110 )
b1101110 8
b11100 (
b11100 7
b101100 5
0'
#445
1'
#450
b101000 !
b101000 A
b110000 ;
b10110010 "
b10110010 @
b100100 C
b1100011 >
b1100 B
b1001111 =
b1100011 E
b100100 <
b1001111 ?
b1100 D
b101000 2
b110000 1
b10110010 .
b100100 0
b1100011 -
b1100 /
b1001111 ,
b1100011 &
b100100 %
b1001111 $
b1100 #
b1001101 +
b1001101 :
b101110 *
b101110 9
b110 )
b110 8
b1110101 (
b1110101 7
b101101 5
0'
#455
1'
#460
b11111110 !
b11111110 A
b10101011 ;
b11100001 "
b11100001 @
b1000001 C
b1100100 >
b1101010 B
b1111101 =
b1100100 E
b1000001 <
b1111101 ?
b1101010 D
b11111110 2
b10101011 1
b11100001 .
b1000001 0
b1100100 -
b1101010 /
b1111101 ,
b1100100 &
b1000001 %
b1111101 $
b1101010 #
b101101 +
b101101 :
b1001001 *
b1001001 9
b1110000 )
b1110000 8
b1100101 (
b1100101 7
b101110 5
0'
#465
1'
#470
b11011101 !
b11011101 A
b10010110 ;
b11000000 "
b11000000 @
b111111 C
b1000001 >
b1010111 B
b1111111 =
b111111 E
b1111111 ?
b1010111 D
b11011101 2
b10010110 1
b11000000 .
b111111 0
b1000001 -
b1010111 /
b1111111 ,
b111111 &
b1111111 $
b1010111 #
b1011110 +
b1011110 :
b1100001 *
b1100001 9
b1110111 )
b1110111 8
b1011111 (
b1011111 7
b101111 5
0'
#475
1'
#480
b111101 !
b111101 A
b101001 ;
b11101011 "
b11101011 @
b10011 C
b1101101 >
b10110 B
b1111110 =
b1101101 E
b10011 <
b1111110 ?
b10110 D
b111101 2
b101001 1
b11101011 .
b10011 0
b1101101 -
b10110 /
b1111110 ,
b1101101 &
b10011 %
b1111110 $
b10110 #
b110011 *
b110011 9
b110110 )
b110110 8
b110000 5
0'
#485
1'
#490
b100010 !
b100010 A
b111100 ;
b11000110 "
b11000110 @
b100 C
b111000 B
b1011001 =
b100 <
b111000 ?
b1011001 D
b100010 2
b111100 1
b11000110 .
b100 0
b111000 /
b1011001 ,
b100 %
b111000 $
b1011001 #
b101000 +
b101000 :
b1000101 *
b1000101 9
b11000 )
b11000 8
b111110 (
b111110 7
b110001 5
0'
#495
1'
#500
b1011110 !
b1011110 A
b1101011 ;
b10001101 "
b10001101 @
b1100001 C
b1110000 >
b1010 B
b11101 =
b1110000 E
b1100001 <
b11101 ?
b1010 D
b1011110 2
b1101011 1
b10001101 .
b1100001 0
b1110000 -
b1010 /
b11101 ,
b1110000 &
b1100001 %
b11101 $
b1010 #
b1101 +
b1101 :
b1111101 *
b1111101 9
b10100 )
b10100 8
b1100001 (
b1100001 7
b110010 5
0'
#505
1'
#510
b111 !
b111 A
b101 ;
b0 C
b10111 >
b101 B
b1110110 =
b10111 E
b0 <
b1110110 ?
b101 D
b111 2
b101 1
b0 0
b10111 -
b101 /
b1110110 ,
b10111 &
b0 %
b1110110 $
b101 #
b100110 +
b100110 :
b110001 *
b110001 9
b1110000 )
b1110000 8
b1010 (
b1010 7
b110011 5
0'
#515
1'
#520
b1100010 !
b1100010 A
b1000011 ;
b1010111 "
b1010111 @
b10010 C
b11001 >
b110001 B
b111110 =
b11001 E
b10010 <
b111110 ?
b110001 D
b1100010 2
b1000011 1
b1010111 .
b10010 0
b11001 -
b110001 /
b111110 ,
b11001 &
b10010 %
b111110 $
b110001 #
b100010 +
b100010 :
b111011 *
b111011 9
b11100 )
b11100 8
b1010010 (
b1010010 7
b110100 5
0'
#525
1'
#530
b1101100 !
b1101100 A
b1001000 ;
b1101100 "
b1101100 @
b1000010 C
b1000010 >
b110 B
b101010 =
b1000010 E
b1000010 <
b101010 ?
b110 D
b1101100 2
b1001000 1
b1101100 .
b1000010 0
b1000010 -
b110 /
b101010 ,
b1000010 &
b1000010 %
b101010 $
b110 #
b101000 +
b101000 :
b1101010 *
b1101010 9
b101010 )
b101010 8
b1010011 (
b1010011 7
b110101 5
0'
#535
1'
#540
b1100 !
b1100 A
b1000 ;
b11101000 "
b11101000 @
b11 C
b1101101 >
b101 B
b1111011 =
b1101101 E
b11 <
b1111011 ?
b101 D
b1100 2
b1000 1
b11101000 .
b11 0
b1101101 -
b101 /
b1111011 ,
b1101101 &
b11 %
b1111011 $
b101 #
b1001010 +
b1001010 :
b100111 *
b100111 9
b111001 )
b111001 8
b1000011 (
b1000011 7
b110110 5
0'
#545
1'
#550
b1110100 !
b1110100 A
b1011000 ;
b10011000 "
b10011000 @
b1000010 C
b1101001 >
b10110 B
b101111 =
b1101001 E
b1000010 <
b101111 ?
b10110 D
b1110100 2
b1011000 1
b10011000 .
b1000010 0
b1101001 -
b10110 /
b101111 ,
b1101001 &
b1000010 %
b101111 $
b10110 #
b1110 +
b1110 :
b1100111 *
b1100111 9
b100011 )
b100011 8
b1001010 (
b1001010 7
b110111 5
0'
#555
1'
#560
b110111 !
b110111 A
b100101 ;
b10101100 "
b10101100 @
b10010 C
b110110 >
b10011 B
b1110110 =
b110110 E
b10010 <
b1110110 ?
b10011 D
b110111 2
b100101 1
b10101100 .
b10010 0
b110110 -
b10011 /
b1110110 ,
b110110 &
b10010 %
b1110110 $
b10011 #
b1000100 +
b1000100 :
b1110010 *
b1110010 9
b1110010 )
b1110010 8
b11110 (
b11110 7
b111000 5
0'
#565
1'
#570
b11100 !
b11100 A
b10111 ;
b11000111 "
b11000111 @
b11 C
b1001000 >
b10100 B
b1111111 =
b11 E
b1001000 <
b1111111 ?
b10100 D
b11100 2
b10111 1
b11000111 .
b11 0
b1001000 -
b10100 /
b1111111 ,
b11 &
b1001000 %
b1111111 $
b10100 #
b1101110 +
b1101110 :
b1101101 *
b1101101 9
b110001 )
b110001 8
b1011010 (
b1011010 7
b111001 5
0'
#575
1'
#580
b11111101 !
b11111101 A
b10101001 ;
b11001111 "
b11001111 @
b1001001 C
b1100000 >
b1100000 B
b1101111 =
b1001001 E
b1100000 <
b1101111 ?
b1100000 D
b11111101 2
b10101001 1
b11001111 .
b1001001 0
b1100000 -
b1100000 /
b1101111 ,
b1001001 &
b1100000 %
b1101111 $
b1100000 #
b101101 +
b101101 :
b1100100 *
b1100100 9
b1101110 )
b1101110 8
b1110001 (
b1110001 7
b111010 5
0'
#585
1'
#590
b1100010 !
b1100010 A
b1000011 ;
b10011011 "
b10011011 @
b1000010 C
b1011110 >
b1 B
b111101 =
b1000010 E
b1011110 <
b111101 ?
b1 D
b1100010 2
b1000011 1
b10011011 .
b1000010 0
b1011110 -
b1 /
b111101 ,
b1000010 &
b1011110 %
b111101 $
b1 #
b111100 +
b111100 :
b1111110 *
b1111110 9
b100001 )
b100001 8
b1011111 (
b1011111 7
b111011 5
0'
#595
1'
#600
b1110010 !
b1110010 A
b1011100 ;
b10010111 "
b10010111 @
b1000000 C
b1011000 >
b11100 B
b111111 =
b1011000 E
b1000000 <
b111111 ?
b11100 D
b1110010 2
b1011100 1
b10010111 .
b1000000 0
b1011000 -
b11100 /
b111111 ,
b1011000 &
b1000000 %
b111111 $
b11100 #
b111001 +
b111001 :
b1100001 *
b1100001 9
b101111 )
b101111 8
b1001100 (
b1001100 7
b111100 5
0'
#605
1'
