DCS-Connection/Lab1/comb_dcs076.vcd
$date
	Thu Feb 05 02:11:26 2026
$end
$version
	Icarus Verilog
$end
$timescale
	1s
$end
$scope module PATTERN $end
$var wire 8 ! out_num1 [7:0] $end
$var wire 8 " out_num0 [7:0] $end
$var reg 7 # A [6:0] $end
$var reg 7 $ B [6:0] $end
$var reg 7 % C [6:0] $end
$var reg 7 & D [6:0] $end
$var reg 1 ' clk $end
$var reg 7 ( in_num0 [6:0] $end
$var reg 7 ) in_num1 [6:0] $end
$var reg 7 * in_num2 [6:0] $end
$var reg 7 + in_num3 [6:0] $end
$var reg 7 , large1 [6:0] $end
$var reg 7 - large2 [6:0] $end
$var reg 8 . large_add [7:0] $end
$var reg 7 / small1 [6:0] $end
$var reg 7 0 small2 [6:0] $end
$var reg 8 1 small_add [7:0] $end
$var reg 8 2 small_gray [7:0] $end
$var real 1 3 CYCLE $end
$var integer 32 4 PATNUM [31:0] $end
$var integer 32 5 patcount [31:0] $end
$var integer 32 6 seed [31:0] $end
$scope module inst_comb $end
$var wire 7 7 in_num0 [6:0] $end
$var wire 7 8 in_num1 [6:0] $end
$var wire 7 9 in_num2 [6:0] $end
$var wire 7 : in_num3 [6:0] $end
$var reg 8 ; adder_result [7:0] $end
$var reg 7 < and_result [6:0] $end
$var reg 7 = large_1_num [6:0] $end
$var reg 7 > large_2_num [6:0] $end
$var reg 7 ? or_result [6:0] $end
$var reg 8 @ out_num0 [7:0] $end
$var reg 8 A out_num1 [7:0] $end
$var reg 7 B small_1_num [6:0] $end
$var reg 7 C small_2_num [6:0] $end
$var reg 7 D xnor_result [6:0] $end
$var reg 7 E xor_result [6:0] $end
$upscope $end
$scope task YOU_PASS_task $end
$upscope $end
$scope task check_ans $end
$upscope $end
$scope task fail $end
$upscope $end
$scope task gen_ans $end
$upscope $end
$scope task input_task $end
$upscope $end
$upscope $end
$enddefinitions $end
$comment Show the parameter values. $end
$dumpall
$end
#0
$dumpvars
b11010 E
b10110 D
b0 C
b10110 B
b11101 A
b1010010 @
b111000 ?
b11010 >
b111000 =
b0 <
b10110 ;
b11000 :
b10 9
b100000 8
b1001001 7
b10010 6
b0 5
b10010110 4
r10 3
b11101 2
b10110 1
b0 0
b10110 /
b1010010 .
b11010 -
b111000 ,
b11000 +
b10 *
b100000 )
b1001001 (
0'
b11010 &
b0 %
b111000 $
b10110 #
b1010010 "
b11101 !
$end
#5
1'
#10
0'
#15
1'
#20
0'
#25
1'
#30
0'
#35
1'
#40
0'
#45
1'
#50
0'
#55
1'
#60
0'
#65
1'
#70
0'
#75
1'
#80
0'
#85
1'
#90
0'
#95
1'
#100
0'
#105
1'
#110
b1010000 !
b1010000 A
b1100000 ;
b10000100 "
b10000100 @
b1 C
b11101 >
b1011111 B
b1100111 =
b11101 E
b1 <
b1100111 ?
b1011111 D
0'
b1010000 2
b1100000 1
b10000100 .
b1 0
b11101 -
b1011111 /
b1100111 ,
b11101 &
b1 %
b1100111 $
b1011111 #
b100 +
b100 :
b11001 *
b11001 9
b1100011 )
b1100011 8
b1000011 (
b1000011 7
b1 5
#115
1'
#120
0'
#125
1'
#130
0'
#135
1'
#140
0'
#145
1'
#150
0'
#155
1'
#160
0'
#165
1'
#170
0'
#175
1'
#180
0'
#185
1'
#190
0'
#195
1'
#200
0'
#205
1'
#210
b1010001 !
b1010001 A
b1100001 ;
b10111100 "
b10111100 @
b10010 C
b1000000 >
b1001111 B
b1111100 =
b10010 E
b1000000 <
b1001111 ?
b1111100 D
0'
b1010001 2
b1100001 1
b10111100 .
b10010 0
b1000000 -
b1001111 /
b1111100 ,
b10010 &
b1000000 %
b1001111 $
b1111100 #
b1001111 +
b1001111 :
b1011101 *
b1011101 9
b1000011 )
b1000011 8
b1000000 (
b1000000 7
b10 5
#215
1'
#220
0'
#225
1'
#230
0'
#235
1'
#240
0'
#245
1'
#250
0'
#255
1'
#260
0'
#265
1'
#270
0'
#275
1'
#280
0'
#285
1'
#290
0'
#295
1'
#300
0'
#305
1'
#310
b11101101 !
b11101101 A
b10110110 ;
b11101101 "
b11101101 @
b1001111 C
b1111010 >
b1100111 B
b1110011 =
b1001111 E
b1111010 <
b1110011 ?
b1100111 D
0'
b11101101 2
b10110110 1
b11101101 .
b1001111 0
b1111010 -
b1100111 /
b1110011 ,
b1001111 &
b1111010 %
b1110011 $
b1100111 #
b110001 +
b110001 :
b1111110 *
b1111110 9
b1100011 )
b1100011 8
b1111011 (
b1111011 7
b11 5
#315
1'
#320
0'
#325
1'
#330
0'
#335
1'
#340
0'
#345
1'
#350
0'
#355
1'
#360
0'
#365
1'
#370
0'
#375
1'
#380
0'
#385
1'
#390
0'
#395
1'
#400
0'
#405
1'
#410
b1001000 !
b1001000 A
b1110000 ;
b11001000 "
b11001000 @
b110001 C
b1100100 >
b111111 B
b1100100 =
b1100100 E
b110001 <
b111111 ?
b1100100 D
0'
b1001000 2
b1110000 1
b11001000 .
b110001 0
b1100100 -
b111111 /
b1100100 ,
b1100100 &
b110001 %
b111111 $
b1100100 #
b11101 +
b11101 :
b1111001 *
b1111001 9
b101010 )
b101010 8
b110001 (
b110001 7
b100 5
#415
1'
#420
0'
#425
1'
#430
0'
#435
1'
#440
0'
#445
1'
#450
0'
#455
1'
#460
0'
#465
1'
#470
0'
#475
1'
#480
0'
#485
1'
#490
0'
#495
1'
#500
0'
#505
1'
#510
b10010 !
b10010 A
b11100 ;
b11000010 "
b11000010 @
b100 C
b1001111 >
b11000 B
b1110011 =
b1001111 E
b100 <
b1110011 ?
b11000 D
0'
b10010 2
b11100 1
b11000010 .
b100 0
b1001111 -
b11000 /
b1110011 ,
b1001111 &
b100 %
b1110011 $
b11000 #
b110011 +
b110011 :
b1111100 *
b1111100 9
b1100011 )
b1100011 8
b100 (
b100 7
b101 5
#515
1'
#520
0'
#525
1'
#530
0'
#535
1'
#540
0'
#545
1'
#550
0'
#555
1'
#560
0'
#565
1'
#570
0'
#575
1'
#580
0'
#585
1'
#590
0'
#595
1'
#600
0'
#605
1'
#610
b1111001 !
b1111001 A
b1010001 ;
b11101100 "
b11101100 @
b10010 C
b1111000 >
b111111 B
b1110100 =
b1111000 E
b10010 <
b111111 ?
b1110100 D
0'
b1111001 2
b1010001 1
b11101100 .
b10010 0
b1111000 -
b111111 /
b1110100 ,
b1111000 &
b10010 %
b111111 $
b1110100 #
b101111 +
b101111 :
b1010111 *
b1010111 9
b110001 )
b110001 8
b111010 (
b111010 7
b110 5
#615
1'
#620
0'
#625
1'
#630
0'
#635
1'
#640
0'
#645
1'
#650
0'
#655
1'
#660
0'
#665
1'
#670
0'
#675
1'
#680
0'
#685
1'
#690
0'
#695
1'
#700
0'
#705
1'
#710
b1010010 !
b1010010 A
b1100011 ;
b11000111 "
b11000111 @
b1000 C
b1011010 >
b1011011 B
b1101101 =
b1011010 E
b1000 <
b1011011 ?
b1101101 D
0'
b1010010 2
b1100011 1
b11000111 .
b1000 0
b1011010 -
b1011011 /
b1101101 ,
b1011010 &
b1000 %
b1011011 $
b1101101 #
b1000010 +
b1000010 :
b11000 *
b11000 9
b11001 )
b11001 8
b1011 (
b1011 7
b111 5
#715
1'
#720
0'
#725
1'
#730
0'
#735
1'
#740
0'
#745
1'
#750
0'
#755
1'
#760
0'
#765
1'
#770
0'
#775
1'
#780
0'
#785
1'
#790
0'
#795
1'
#800
0'
#805
1'
#810
b101100 !
b101100 A
b110111 ;
b10111100 "
b10111100 @
b100000 C
b1001101 >
b10111 B
b1101111 =
b1001101 E
b100000 <
b1101111 ?
b10111 D
0'
b101100 2
b110111 1
b10111100 .
b100000 0
b1001101 -
b10111 /
b1101111 ,
b1001101 &
b100000 %
b1101111 $
b10111 #
b100111 +
b100111 :
b1101010 *
b1101010 9
b1001000 )
b1001000 8
b100000 (
b100000 7
b1000 5
#815
1'
#820
0'
#825
1'
#830
0'
#835
1'
#840
0'
#845
1'
#850
0'
#855
1'
#860
0'
#865
1'
#870
0'
#875
1'
#880
0'
#885
1'
#890
0'
#895
1'
#900
0'
#905
1'
#910
b11111 !
b11111 A
b10101 ;
b1110101 "
b1110101 @
b1 C
b10111 >
b10100 B
b1011110 =
b10111 E
b1 <
b10100 ?
b1011110 D
0'
b11111 2
b10101 1
b1110101 .
b1 0
b10111 -
b10100 /
b1011110 ,
b10111 &
b1 %
b10100 $
b1011110 #
b10100 +
b10100 :
b11 *
b11 9
b100 )
b100 8
b100101 (
b100101 7
b1001 5
#915
1'
#920
0'
#925
1'
#930
0'
#935
1'
#940
0'
#945
1'
#950
0'
#955
1'
#960
0'
#965
1'
#970
0'
#975
1'
#980
0'
#985
1'
#990
0'
#995
1'
#1000
0'
#1005
1'
#1010
b11000 !
b11000 A
b10000 ;
b1101010 "
b1101010 @
b0 C
b101011 >
b10000 B
b111111 =
b101011 E
b0 <
b111111 ?
b10000 D
0'
b11000 2
b10000 1
b1101010 .
b0 0
b101011 -
b10000 /
b111111 ,
b101011 &
b0 %
b111111 $
b10000 #
b101011 +
b101011 :
b0 *
b0 9
b110101 )
b110101 8
b1011010 (
b1011010 7
b1010 5
#1015
1'
#1020
0'
#1025
1'
#1030
0'
#1035
1'
#1040
0'
#1045
1'
#1050
0'
#1055
1'
#1060
0'
#1065
1'
#1070
0'
#1075
1'
#1080
0'
#1085
1'
#1090
0'
#1095
1'
#1100
0'
#1105
1'
#1110
b11111 !
b11111 A
b10101 ;
b10110011 "
b10110011 @
b1010 C
b1000000 >
b1011 B
b1110011 =
b1010 E
b1000000 <
b1110011 ?
b1011 D
0'
b11111 2
b10101 1
b10110011 .
b1010 0
b1000000 -
b1011 /
b1110011 ,
b1010 &
b1000000 %
b1110011 $
b1011 #
b1000010 +
b1000010 :
b1001000 *
b1001000 9
b110011 )
b110011 8
b1000111 (
b1000111 7
b1011 5
#1115
1'
#1120
0'
#1125
1'
#1130
0'
#1135
1'
#1140
0'
#1145
1'
#1150
0'
#1155
1'
#1160
0'
#1165
1'
#1170
0'
#1175
1'
#1180
0'
#1185
1'
#1190
0'
#1195
1'
#1200
0'
#1205
1'
#1210
b1010000 !
b1010000 A
b1100000 ;
b10011111 "
b10011111 @
b11110 C
b110000 >
b1000010 B
b1101111 =
b11110 E
b110000 <
b1101111 ?
b1000010 D
0'
b1010000 2
b1100000 1
b10011111 .
b11110 0
b110000 -
b1000010 /
b1101111 ,
b11110 &
b110000 %
b1101111 $
b1000010 #
b1100010 +
b1100010 :
b1111100 *
b1111100 9
b1111 )
b1111 8
b110010 (
b110010 7
b1100 5
#1215
1'
#1220
0'
#1225
1'
#1230
0'
#1235
1'
#1240
0'
#1245
1'
#1250
0'
#1255
1'
#1260
0'
#1265
1'
#1270
0'
#1275
1'
#1280
0'
#1285
1'
#1290
0'
#1295
1'
#1300
0'
#1305
1'
#1310
b1011101 !
b1011101 A
b1101001 ;
b10110010 "
b10110010 @
b1010000 C
b1111100 >
b11001 B
b110110 =
b1111100 E
b1010000 <
b110110 ?
b11001 D
0'
b1011101 2
b1101001 1
b10110010 .
b1010000 0
b1111100 -
b11001 /
b110110 ,
b1111100 &
b1010000 %
b110110 $
b11001 #
b100010 +
b100010 :
b1011110 *
b1011110 9
b110110 )
b110110 8
b1010000 (
b1010000 7
b1101 5
#1315
1'
#1320
0'
#1325
1'
#1330
0'
#1335
1'
#1340
0'
#1345
1'
#1350
0'
#1355
1'
#1360
0'
#1365
1'
#1370
0'
#1375
1'
#1380
0'
#1385
1'
#1390
0'
#1395
1'
#1400
0'
#1405
1'
#1410
b11000011 !
b11000011 A
b10000010 ;
b11011111 "
b11011111 @
b11010 C
b1110000 >
b1101000 B
b1101111 =
b11010 E
b1110000 <
b1101111 ?
b1101000 D
0'
b11000011 2
b10000010 1
b11011111 .
b11010 0
b1110000 -
b1101000 /
b1101111 ,
b11010 &
b1110000 %
b1101111 $
b1101000 #
b1101011 +
b1101011 :
b1110001 *
b1110001 9
b1101101 )
b1101101 8
b1111010 (
b1111010 7
b1110 5
#1415
1'
#1420
0'
#1425
1'
#1430
0'
#1435
1'
#1440
0'
#1445
1'
#1450
0'
#1455
1'
#1460
0'
#1465
1'
#1470
0'
#1475
1'
#1480
0'
#1485
1'
#1490
0'
#1495
1'
#1500
0'
#1505
1'
#1510
b10010 !
b10010 A
b11100 ;
b1111100 "
b1111100 @
b10 C
b11110 >
b11010 B
b1011110 =
b11110 E
b10 <
b1011110 ?
b11010 D
0'
b10010 2
b11100 1
b1111100 .
b10 0
b11110 -
b11010 /
b1011110 ,
b11110 &
b10 %
b1011110 $
b11010 #
b11100 +
b11100 :
b10 *
b10 9
b1001010 )
b1001010 8
b101111 (
b101111 7
b1111 5
#1515
1'
#1520
0'
#1525
1'
#1530
0'
#1535
1'
#1540
0'
#1545
1'
#1550
0'
#1555
1'
#1560
0'
#1565
1'
#1570
0'
#1575
1'
#1580
0'
#1585
1'
#1590
0'
#1595
1'
#1600
0'
#1605
1'
#1610
b1101011 !
b1101011 A
b1001101 ;
b10011111 "
b10011111 @
b0 C
b1000000 >
b1001101 B
b1011111 =
b1000000 E
b0 <
b1011111 ?
b1001101 D
0'
b1101011 2
b1001101 1
b10011111 .
b0 0
b1000000 -
b1001101 /
b1011111 ,
b1000000 &
b0 %
b1011111 $
b1001101 #
b1001110 +
b1001110 :
b1110 *
b1110 9
b1010011 )
b1010011 8
b1100001 (
b1100001 7
b10000 5
#1615
1'
#1620
0'
#1625
1'
#1630
0'
#1635
1'
#1640
0'
#1645
1'
#1650
0'
#1655
1'
#1660
0'
#1665
1'
#1670
0'
#1675
1'
#1680
0'
#1685
1'
#1690
0'
#1695
1'
#1700
0'
#1705
1'
#1710
b111000 !
b111000 A
b101111 ;
b10010011 "
b10010011 @
b1010 C
b11100 >
b100101 B
b1110111 =
b1010 E
b11100 <
b1110111 ?
b100101 D
0'
b111000 2
b101111 1
b10010011 .
b1010 0
b11100 -
b100101 /
b1110111 ,
b1010 &
b11100 %
b1110111 $
b100101 #
b1110110 +
b1110110 :
b1111100 *
b1111100 9
b1000101 )
b1000101 8
b11111 (
b11111 7
b10001 5
#1715
1'
#1720
0'
#1725
1'
#1730
0'
#1735
1'
#1740
0'
#1745
1'
#1750
0'
#1755
1'
#1760
0'
#1765
1'
#1770
0'
#1775
1'
#1780
0'
#1785
1'
#1790
0'
#1795
1'
#1800
0'
#1805
1'
#1810
b1001100 !
b1001100 A
b1110111 ;
b10110100 "
b10110100 @
b100 C
b1000000 >
b1110011 B
b1110100 =
b100 E
b1000000 <
b1110011 ?
b1110100 D
0'
b1001100 2
b1110111 1
b10110100 .
b100 0
b1000000 -
b1110011 /
b1110100 ,
b100 &
b1000000 %
b1110011 $
b1110100 #
b1100011 +
b1100011 :
b1100111 *
b1100111 9
b1010011 )
b1010011 8
b1011000 (
b1011000 7
b10010 5
#1815
1'
#1820
0'
#1825
1'
#1830
0'
#1835
1'
#1840
0'
#1845
1'
#1850
0'
#1855
1'
#1860
0'
#1865
1'
#1870
0'
#1875
1'
#1880
0'
#1885
1'
#1890
0'
#1895
1'
#1900
0'
#1905
1'
#1910
b1111011 !
b1111011 A
b1010010 ;
b1101111 "
b1101111 @
b100110 C
b110000 >
b101100 B
b111111 =
b110000 E
b100110 <
b111111 ?
b101100 D
0'
b1111011 2
b1010010 1
b1101111 .
b100110 0
b110000 -
b101100 /
b111111 ,
b110000 &
b100110 %
b111111 $
b101100 #
b10111 +
b10111 :
b100111 *
b100111 9
b101101 )
b101101 8
b1111110 (
b1111110 7
b10011 5
#1915
1'
#1920
0'
#1925
1'
#1930
0'
#1935
1'
#1940
0'
#1945
1'
#1950
0'
#1955
1'
#1960
0'
#1965
1'
#1970
0'
#1975
1'
#1980
0'
#1985
1'
#1990
0'
#1995
1'
#2000
0'
#2005
1'
#2010
b10011 !
b10011 A
b11101 ;
b10011100 "
b10011100 @
b10010 C
b100110 >
b1011 B
b1110110 =
b100110 E
b10010 <
b1110110 ?
b1011 D
0'
b10011 2
b11101 1
b10011100 .
b10010 0
b100110 -
b1011 /
b1110110 ,
b100110 &
b10010 %
b1110110 $
b1011 #
b110100 +
b110100 :
b10010 *
b10010 9
b1100010 )
b1100010 8
b10110 (
b10110 7
b10100 5
#2015
1'
#2020
0'
#2025
1'
#2030
0'
#2035
1'
#2040
0'
#2045
1'
#2050
0'
#2055
1'
#2060
0'
#2065
1'
#2070
0'
#2075
1'
#2080
0'
#2085
1'
#2090
0'
#2095
1'
#2100
0'
#2105
1'
#2110
b1000010 !
b1000010 A
b1111100 ;
b10000100 "
b10000100 @
b100101 C
b1010111 B
b1011110 =
b100101 <
b1010111 ?
b1011110 D
0'
b1000010 2
b1111100 1
b10000100 .
b100101 0
b1010111 /
b1011110 ,
b100101 %
b1010111 $
b1011110 #
b1000011 +
b1000011 :
b1100101 *
b1100101 9
b10100 )
b10100 8
b110101 (
b110101 7
b10101 5
#2115
1'
#2120
0'
#2125
1'
#2130
0'
#2135
1'
#2140
0'
#2145
1'
#2150
0'
#2155
1'
#2160
0'
#2165
1'
#2170
0'
#2175
1'
#2180
0'
#2185
1'
#2190
0'
#2195
1'
#2200
0'
#2205
1'
#2210
b1101011 !
b1101011 A
b1001101 ;
b11010001 "
b11010001 @
b10000 C
b1010010 >
b111101 B
b1111111 =
b1010010 E
b10000 <
b1111111 ?
b111101 D
0'
b1101011 2
b1001101 1
b11010001 .
b10000 0
b1010010 -
b111101 /
b1111111 ,
b1010010 &
b10000 %
b1111111 $
b111101 #
b1001111 +
b1001111 :
b11101 *
b11101 9
b1110010 )
b1110010 8
b110000 (
b110000 7
b10110 5
#2215
1'
#2220
0'
#2225
1'
#2230
0'
#2235
1'
#2240
0'
#2245
1'
#2250
0'
#2255
1'
#2260
0'
#2265
1'
#2270
0'
#2275
1'
#2280
0'
#2285
1'
#2290
0'
#2295
1'
#2300
0'
#2305
1'
#2310
b100101 !
b100101 A
b111001 ;
b10011111 "
b10011111 @
b10101 C
b1000000 >
b100100 B
b1011111 =
b10101 E
b1000000 <
b1011111 ?
b100100 D
0'
b100101 2
b111001 1
b10011111 .
b10101 0
b1000000 -
b100100 /
b1011111 ,
b10101 &
b1000000 %
b1011111 $
b100100 #
b1001110 +
b1001110 :
b1011011 *
b1011011 9
b11111 )
b11111 8
b1000100 (
b1000100 7
b10111 5
#2315
1'
#2320
0'
#2325
1'
#2330
0'
#2335
1'
#2340
0'
#2345
1'
#2350
0'
#2355
1'
#2360
0'
#2365
1'
#2370
0'
#2375
1'
#2380
0'
#2385
1'
#2390
0'
#2395
1'
#2400
0'
#2405
1'
#2410
b1101011 !
b1101011 A
b1001101 ;
b10111101 "
b10111101 @
b1000001 C
b1111111 >
b1100 B
b111110 =
b1111111 E
b1000001 <
b111110 ?
b1100 D
0'
b1101011 2
b1001101 1
b10111101 .
b1000001 0
b1111111 -
b1100 /
b111110 ,
b1111111 &
b1000001 %
b111110 $
b1100 #
b11110 +
b11110 :
b1100001 *
b1100001 9
b110100 )
b110100 8
b1000111 (
b1000111 7
b11000 5
#2415
1'
#2420
0'
#2425
1'
#2430
0'
#2435
1'
#2440
0'
#2445
1'
#2450
0'
#2455
1'
#2460
0'
#2465
1'
#2470
0'
#2475
1'
#2480
0'
#2485
1'
#2490
0'
#2495
1'
#2500
0'
#2505
1'
#2510
b1010000 !
b1010000 A
b1100000 ;
b11000000 "
b11000000 @
b110 C
b1000101 >
b1011010 B
b1111011 =
b1000101 E
b110 <
b1011010 ?
b1111011 D
0'
b1010000 2
b1100000 1
b11000000 .
b110 0
b1000101 -
b1011010 /
b1111011 ,
b1000101 &
b110 %
b1011010 $
b1111011 #
b1001010 +
b1001010 :
b1111 *
b1111 9
b1010010 )
b1010010 8
b1010110 (
b1010110 7
b11001 5
#2515
1'
#2520
0'
#2525
1'
#2530
0'
#2535
1'
#2540
0'
#2545
1'
#2550
0'
#2555
1'
#2560
0'
#2565
1'
#2570
0'
#2575
1'
#2580
0'
#2585
1'
#2590
0'
#2595
1'
#2600
0'
#2605
1'
#2610
b1111 !
b1111 A
b1010 ;
b101011 "
b101011 @
b10 C
b100 >
b1000 B
b100111 =
b100 E
b10 <
b100111 ?
b1000 D
0'
b1111 2
b1010 1
b101011 .
b10 0
b100 -
b1000 /
b100111 ,
b100 &
b10 %
b100111 $
b1000 #
b100111 +
b100111 :
b100011 *
b100011 9
b100001 )
b100001 8
b11010 5
#2615
1'
#2620
0'
#2625
1'
#2630
0'
#2635
1'
#2640
0'
#2645
1'
#2650
0'
#2655
1'
#2660
0'
#2665
1'
#2670
0'
#2675
1'
#2680
0'
#2685
1'
#2690
0'
#2695
1'
#2700
0'
#2705
1'
#2710
b1010110 !
b1010110 A
b1100100 ;
b10011101 "
b10011101 @
b1011100 C
b1110100 >
b101001 =
b1110100 E
b1011100 <
b101001 ?
0'
b1010110 2
b1100100 1
b10011101 .
b1011100 0
b1110100 -
b101001 ,
b1110100 &
b1011100 %
b101001 $
b101000 +
b101000 :
b1011100 *
b1011100 9
b1001 )
b1001 8
b1111110 (
b1111110 7
b11011 5
#2715
1'
#2720
0'
#2725
1'
#2730
0'
#2735
1'
#2740
0'
#2745
1'
#2750
0'
#2755
1'
#2760
0'
#2765
1'
#2770
0'
#2775
1'
#2780
0'
#2785
1'
#2790
0'
#2795
1'
#2800
0'
#2805
1'
#2810
b1110110 !
b1110110 A
b1011011 ;
b11000011 "
b11000011 @
b11 C
b1000110 >
b1011000 B
b1111101 =
b1000110 E
b11 <
b1111101 ?
b1011000 D
0'
b1110110 2
b1011011 1
b11000011 .
b11 0
b1000110 -
b1011000 /
b1111101 ,
b1000110 &
b11 %
b1111101 $
b1011000 #
b1010001 +
b1010001 :
b10111 *
b10111 9
b101100 )
b101100 8
b1011 (
b1011 7
b11100 5
#2815
1'
#2820
0'
#2825
1'
#2830
0'
#2835
1'
#2840
0'
#2845
1'
#2850
0'
#2855
1'
#2860
0'
#2865
1'
#2870
0'
#2875
1'
#2880
0'
#2885
1'
#2890
0'
#2895
1'
#2900
0'
#2905
1'
#2910
b1011101 !
b1011101 A
b1101001 ;
b11100101 "
b11100101 @
b111001 C
b1101111 >
b110000 B
b1110110 =
b1101111 E
b111001 <
b1110110 ?
b110000 D
0'
b1011101 2
b1101001 1
b11100101 .
b111001 0
b1101111 -
b110000 /
b1110110 ,
b1101111 &
b111001 %
b1110110 $
b110000 #
b1010110 +
b1010110 :
b111001 *
b111001 9
b110010 )
b110010 8
b1111101 (
b1111101 7
b11101 5
#2915
1'
#2920
0'
#2925
1'
#2930
0'
#2935
1'
#2940
0'
#2945
1'
#2950
0'
#2955
1'
#2960
0'
#2965
1'
#2970
0'
#2975
1'
#2980
0'
#2985
1'
#2990
0'
#2995
1'
#3000
0'
#3005
1'
#3010
b11000 !
b11000 A
b10000 ;
b1101010 "
b1101010 @
b10 C
b101111 >
b1110 B
b111011 =
b101111 E
b10 <
b111011 ?
b1110 D
0'
b11000 2
b10000 1
b1101010 .
b10 0
b101111 -
b1110 /
b111011 ,
b101111 &
b10 %
b111011 $
b1110 #
b11001 +
b11001 :
b110110 *
b110110 9
b111011 )
b111011 8
b1001010 (
b1001010 7
b11110 5
#3015
1'
#3020
0'
#3025
1'
#3030
0'
#3035
1'
#3040
0'
#3045
1'
#3050
0'
#3055
1'
#3060
0'
#3065
1'
#3070
0'
#3075
1'
#3080
0'
#3085
1'
#3090
0'
#3095
1'
#3100
0'
#3105
1'
#3110
b1001001 !
b1001001 A
b1110001 ;
b10000110 "
b10000110 @
b1100 C
b1111 >
b1100101 B
b1110111 =
b1111 E
b1100 <
b1110111 ?
b1100101 D
0'
b1001001 2
b1110001 1
b10000110 .
b1100 0
b1111 -
b1100101 /
b1110111 ,
b1111 &
b1100 %
b1110111 $
b1100101 #
b1010001 +
b1010001 :
b1011110 *
b1011110 9
b110111 )
b110111 8
b101101 (
b101101 7
b11111 5
#3115
1'
#3120
0'
#3125
1'
#3130
0'
#3135
1'
#3140
0'
#3145
1'
#3150
0'
#3155
1'
#3160
0'
#3165
1'
#3170
0'
#3175
1'
#3180
0'
#3185
1'
#3190
0'
#3195
1'
#3200
0'
#3205
1'
#3210
b110001 !
b110001 A
b100001 ;
b1110100 "
b1110100 @
b100000 C
b101001 >
b1 B
b1001011 =
b101001 E
b100000 <
b1001011 ?
b1 D
0'
b110001 2
b100001 1
b1110100 .
b100000 0
b101001 -
b1 /
b1001011 ,
b101001 &
b100000 %
b1001011 $
b1 #
b1000011 +
b1000011 :
b1101010 *
b1101010 9
b1001010 )
b1001010 8
b110100 (
b110100 7
b100000 5
#3215
1'
#3220
0'
#3225
1'
#3230
0'
#3235
1'
#3240
0'
#3245
1'
#3250
0'
#3255
1'
#3260
0'
#3265
1'
#3270
0'
#3275
1'
#3280
0'
#3285
1'
#3290
0'
#3295
1'
#3300
0'
#3305
1'
#3310
b100011 !
b100011 A
b111101 ;
b1101101 "
b1101101 @
b1111 C
b110111 >
b101110 B
b110110 =
b1111 E
b110111 <
b110110 ?
b101110 D
0'
b100011 2
b111101 1
b1101101 .
b1111 0
b110111 -
b101110 /
b110110 ,
b1111 &
b110111 %
b110110 $
b101110 #
b110000 +
b110000 :
b111111 *
b111111 9
b100110 )
b100110 8
b1110111 (
b1110111 7
b100001 5
#3315
1'
#3320
0'
#3325
1'
#3330
0'
#3335
1'
#3340
0'
#3345
1'
#3350
0'
#3355
1'
#3360
0'
#3365
1'
#3370
0'
#3375
1'
#3380
0'
#3385
1'
#3390
0'
#3395
1'
#3400
0'
#3405
1'
#3410
b1010110 !
b1010110 A
b1100100 ;
b10010100 "
b10010100 @
b10001 C
b11011 >
b1010011 B
b1111001 =
b11011 E
b10001 <
b1010011 ?
b1111001 D
0'
b1010110 2
b1100100 1
b10010100 .
b10001 0
b11011 -
b1010011 /
b1111001 ,
b11011 &
b10001 %
b1010011 $
b1111001 #
b10 +
b10 :
b11001 *
b11001 9
b1010011 )
b1010011 8
b1010101 (
b1010101 7
b100010 5
#3415
1'
#3420
0'
#3425
1'
#3430
0'
#3435
1'
#3440
0'
#3445
1'
#3450
0'
#3455
1'
#3460
0'
#3465
1'
#3470
0'
#3475
1'
#3480
0'
#3485
1'
#3490
0'
#3495
1'
#3500
0'
#3505
1'
#3510
b1011100 !
b1011100 A
b1101000 ;
b10011110 "
b10011110 @
b1001100 C
b1110000 >
b11100 B
b101110 =
b1110000 E
b1001100 <
b101110 ?
b11100 D
0'
b1011100 2
b1101000 1
b10011110 .
b1001100 0
b1110000 -
b11100 /
b101110 ,
b1110000 &
b1001100 %
b101110 $
b11100 #
b101110 +
b101110 :
b1011110 *
b1011110 9
b1110 )
b1110 8
b1101101 (
b1101101 7
b100011 5
#3515
1'
#3520
0'
#3525
1'
#3530
0'
#3535
1'
#3540
0'
#3545
1'
#3550
0'
#3555
1'
#3560
0'
#3565
1'
#3570
0'
#3575
1'
#3580
0'
#3585
1'
#3590
0'
#3595
1'
#3600
0'
#3605
1'
#3610
b1001100 !
b1001100 A
b1110111 ;
b10010101 "
b10010101 @
b1 C
b10111 >
b1110110 B
b1111110 =
b10111 E
b1 <
b1110110 ?
b1111110 D
0'
b1001100 2
b1110111 1
b10010101 .
b1 0
b10111 -
b1110110 /
b1111110 ,
b10111 &
b1 %
b1110110 $
b1111110 #
b10110 +
b10110 :
b1 *
b1 9
b1100100 )
b1100100 8
b1100101 (
b1100101 7
b100100 5
#3615
1'
#3620
0'
#3625
1'
#3630
0'
#3635
1'
#3640
0'
#3645
1'
#3650
0'
#3655
1'
#3660
0'
#3665
1'
#3670
0'
#3675
1'
#3680
0'
#3685
1'
#3690
0'
#3695
1'
#3700
0'
#3705
1'
#3710
b11000100 !
b11000100 A
b10000111 ;
b10010001 "
b10010001 @
b1101101 C
b1110110 >
b11010 B
b11011 =
b1101101 E
b1110110 <
b11011 ?
b11010 D
0'
b11000100 2
b10000111 1
b10010001 .
b1101101 0
b1110110 -
b11010 /
b11011 ,
b1101101 &
b1110110 %
b11011 $
b11010 #
b11011 +
b11011 :
b1110110 *
b1110110 9
b10011 )
b10011 8
b1110110 (
b1110110 7
b100101 5
#3715
1'
#3720
0'
#3725
1'
#3730
0'
#3735
1'
#3740
0'
#3745
1'
#3750
0'
#3755
1'
#3760
0'
#3765
1'
#3770
0'
#3775
1'
#3780
0'
#3785
1'
#3790
0'
#3795
1'
#3800
0'
#3805
1'
#3810
b10100 !
b10100 A
b11000 ;
b10000100 "
b10000100 @
b1000 C
b1101 >
b10000 B
b1110111 =
b1000 E
b1101 <
b1110111 ?
b10000 D
0'
b10100 2
b11000 1
b10000100 .
b1000 0
b1101 -
b10000 /
b1110111 ,
b1000 &
b1101 %
b1110111 $
b10000 #
b1100101 +
b1100101 :
b1101101 *
b1101101 9
b1110010 )
b1110010 8
b11101 (
b11101 7
b100110 5
#3815
1'
#3820
0'
#3825
1'
#3830
0'
#3835
1'
#3840
0'
#3845
1'
#3850
0'
#3855
1'
#3860
0'
#3865
1'
#3870
0'
#3875
1'
#3880
0'
#3885
1'
#3890
0'
#3895
1'
#3900
0'
#3905
1'
#3910
b1100000 !
b1100000 A
b1000000 ;
b10000010 "
b10000010 @
b10001 C
b100111 >
b101111 B
b1011011 =
b100111 E
b10001 <
b1011011 ?
b101111 D
0'
b1100000 2
b1000000 1
b10000010 .
b10001 0
b100111 -
b101111 /
b1011011 ,
b100111 &
b10001 %
b1011011 $
b101111 #
b1011010 +
b1011010 :
b1111101 *
b1111101 9
b1000001 )
b1000001 8
b10001 (
b10001 7
b100111 5
#3915
1'
#3920
0'
#3925
1'
#3930
0'
#3935
1'
#3940
0'
#3945
1'
#3950
0'
#3955
1'
#3960
0'
#3965
1'
#3970
0'
#3975
1'
#3980
0'
#3985
1'
#3990
0'
#3995
1'
#4000
0'
